network analytics
…
#head(connections)
nrow(trips)

## [1] 344940

trips %>% group_by(from_station_id,to_station_id) %>% count(name="trips")->trips_freq
#connections[connections$member1=="220654721",]
#setnames(trips_freq,old="n",new="weight")
trips_freq        

## # A tibble: 50,971 x 3
## # Groups:   from_station_id, to_station_id [50,971]
##    from_station_id to_station_id trips
##              <int>         <int> <int>
##  1               2             2    53
##  2               2             3    34
##  3               2             4     7
##  4               2             5     4
##  5               2             6     7
##  6               2             7     9
##  7               2            14     1
##  8               2            24     1
##  9               2            25     1
## 10               2            26     4
## # ... with 50,961 more rows
…
